<?xml version="1.0" encoding="utf-8"?>
<!-- Generator: Adobe Illustrator 20.1.0, SVG Export Plug-In . SVG Version: 6.00 Build 0)  -->
<svg version="1.1" id="Layer_1" xmlns="http://www.w3.org/2000/svg" xmlns:xlink="http://www.w3.org/1999/xlink" x="0px" y="0px"
	 viewBox="0 0 179 21" style="enable-background:new 0 0 179 21;" xml:space="preserve">
<style type="text/css">
	.st0{fill:#FFFFFF;}
</style>
<g>
	<path class="st0" d="M6,20.1V4.8H0.5V1.4h14.9v3.3H9.8v15.4H6z"/>
	<path class="st0" d="M16.3,20.1V1.4h3.9v7h7.7v-7h3.9v18.7h-3.9v-8.3h-7.7v8.3H16.3z"/>
	<path class="st0" d="M34.4,20.1V1.4h3.8v18.7H34.4z"/>
	<path class="st0" d="M41,20.1V1.4h4l7.6,12.8V1.4h3.8v18.7h-4L44.8,7.3v12.8H41z"/>
	<path class="st0" d="M59,20.1V1.4h3.8v7.7l7.3-7.7h4.8L67.4,9l8.1,11.1h-4.7l-6.1-8.6l-2,2v6.6H59z"/>
	<path class="st0" d="M85.4,1.4h1.3c1.5,0,2.7,0.1,3.5,0.2c0.8,0.2,1.4,0.4,2,0.8c1.2,0.7,2,1.8,2.6,3.2c0.6,1.4,0.9,3.1,0.9,5.1
		c0,2.1-0.3,3.9-1,5.4s-1.6,2.5-2.9,3.2c-0.5,0.3-1.2,0.5-2,0.6c-0.8,0.1-2,0.2-3.6,0.2H81V1.4H85.4z M82.7,18.6h3.6
		c1.4,0,2.4-0.1,3.1-0.2c0.7-0.1,1.2-0.3,1.6-0.5c0.9-0.6,1.7-1.4,2.1-2.6c0.5-1.2,0.7-2.7,0.7-4.5c0-1.8-0.2-3.2-0.7-4.4
		c-0.4-1.2-1.1-2-2-2.6c-0.5-0.3-1-0.5-1.7-0.6C88.9,3,87.7,3,86.1,3h-0.4h-3V18.6z"/>
	<path class="st0" d="M97.8,20.1V1.4h12.2V3H99.5v6.8h9.6v1.5h-9.6v7.3h10.8v1.5H97.8z"/>
	<path class="st0" d="M111.4,14.5h1.7c0,1.5,0.5,2.6,1.4,3.4s2.2,1.2,3.9,1.2c1.5,0,2.6-0.3,3.4-1c0.8-0.7,1.3-1.6,1.3-2.7
		c0-1.1-0.3-1.9-0.9-2.4s-1.7-1.1-3.5-1.5l-1.8-0.4c-1.9-0.5-3.2-1.1-4-1.9c-0.7-0.8-1.1-1.8-1.1-3.2c0-1.5,0.6-2.7,1.7-3.6
		s2.6-1.4,4.4-1.4c2,0,3.5,0.5,4.6,1.5c1.1,1,1.7,2.4,1.7,4.2h-1.7c0-1.3-0.4-2.4-1.2-3.1s-1.9-1.1-3.4-1.1c-1.4,0-2.4,0.3-3.2,0.9
		c-0.8,0.6-1.1,1.5-1.1,2.6c0,0.9,0.2,1.5,0.7,2s1.3,0.9,2.4,1.2l2.2,0.5c2.2,0.5,3.7,1.2,4.5,2.1c0.9,0.8,1.3,2,1.3,3.4
		c0,1.7-0.6,3-1.7,4c-1.1,1-2.7,1.4-4.7,1.4c-2.2,0-3.9-0.5-5.1-1.6c-1.2-1-1.8-2.5-1.8-4.5V14.5z"/>
	<path class="st0" d="M126.8,20.1V1.4h1.8v18.7H126.8z"/>
	<path class="st0" d="M145.9,20.1l-0.2-3.3c-0.6,1.2-1.4,2.1-2.6,2.8c-1.1,0.7-2.5,1-3.9,1c-2.6,0-4.6-0.9-6.1-2.7
		c-1.5-1.8-2.2-4.2-2.2-7.2c0-3,0.8-5.4,2.3-7.2c1.5-1.7,3.6-2.6,6.2-2.6c2.2,0,3.9,0.5,5.3,1.6c1.4,1,2.2,2.5,2.4,4.4h-1.8
		c-0.3-1.4-0.9-2.5-2-3.3s-2.4-1.2-4-1.2c-2.2,0-3.8,0.7-5,2.2c-1.2,1.4-1.8,3.5-1.8,6.1c0,2.6,0.6,4.6,1.8,6.1s2.8,2.2,4.8,2.2
		c2.1,0,3.7-0.6,4.8-1.8c1.1-1.2,1.7-2.9,1.7-5.1v-0.1h-6.2v-1.5h7.8v9.6H145.9z"/>
	<path class="st0" d="M149.7,20.1V1.4h1.9l10.6,16v-16h1.7v18.7h-1.9l-10.5-16v16H149.7z"/>
	<path class="st0" d="M169.8,6.1V1.1H168V0.4h4.4v0.7h-1.8v5.1H169.8z"/>
	<path class="st0" d="M173.9,1.2v4.9h-0.7V0.4h1.1l1.4,4.4c0,0.1,0.1,0.2,0.1,0.3c0,0.1,0,0.1,0,0.2c0-0.1,0-0.2,0.1-0.3
		c0-0.1,0-0.1,0.1-0.2l1.5-4.4h1.1v5.8h-0.8V1.2c0,0.1,0,0.2-0.1,0.3c0,0.1,0,0.2-0.1,0.3l-1.5,4.4h-0.7L174,1.7
		c0-0.1,0-0.2-0.1-0.2C173.9,1.4,173.9,1.3,173.9,1.2z"/>
</g>
</svg>
