<?xml version="1.0" encoding="iso-8859-1"?>
<!-- Generator: Adobe Illustrator 19.0.0, SVG Export Plug-In . SVG Version: 6.00 Build 0)  -->
<svg version="1.1" id="Capa_1" xmlns="http://www.w3.org/2000/svg" xmlns:xlink="http://www.w3.org/1999/xlink" x="0px" y="0px"
	 viewBox="0 0 456.53 456.53" style="enable-background:new 0 0 456.53 456.53;" xml:space="preserve">
<path style="fill:#F2DBC0;" d="M328.265,152.53h-12v-41.872c-45.128-11.728-144-54.128-144-54.128l-32,80v16h-12
	c-11.046,0-20,8.954-20,20s8.954,20,20,20h12.56c2.482,30.148,20.446,56.843,47.44,70.496v65.504c0,22.091,17.909,40,40,40
	s40-17.909,40-40v-65.648c26.883-13.734,44.851-40.289,47.6-70.352h12.4c11.046,0,20-8.954,20-20S339.311,152.53,328.265,152.53z"/>
<g>
	<path style="fill:#DBC6AE;" d="M268.265,270.842v-8l0,0c-2.836,1.446-5.75,2.733-8.728,3.856c-0.432,0.168-0.864,0.32-1.304,0.48
		c-2.549,0.928-5.152,1.728-7.808,2.4c-0.72,0.192-1.432,0.384-2.152,0.56c-2.472,0.576-4.992,1.024-7.536,1.384
		c-0.8,0.12-1.6,0.28-2.4,0.376c-6.658,0.811-13.39,0.811-20.048,0c-0.8-0.096-1.6-0.256-2.4-0.376
		c-2.544-0.36-5.064-0.8-7.536-1.384c-0.72-0.176-1.432-0.368-2.152-0.56c-2.667-0.688-5.269-1.488-7.808-2.4
		c-0.44-0.16-0.872-0.312-1.304-0.48c-3.011-1.117-5.957-2.402-8.824-3.848l0,0v8l0,0c2.839,1.439,5.752,2.726,8.728,3.856
		c0.432,0.168,0.864,0.32,1.304,0.48c2.544,0.928,5.152,1.72,7.808,2.4c0.72,0.192,1.432,0.392,2.152,0.56
		c2.472,0.576,4.992,1.016,7.536,1.384c0.8,0.12,1.6,0.28,2.4,0.376c6.658,0.811,13.39,0.811,20.048,0
		c0.8-0.096,1.6-0.256,2.4-0.376c2.544-0.368,5.064-0.8,7.536-1.384c0.72-0.168,1.432-0.368,2.152-0.56
		c2.656-0.696,5.264-1.488,7.808-2.4c0.44-0.16,0.872-0.312,1.304-0.48c3.008-1.126,5.954-2.414,8.824-3.856V270.842z"/>
	<path style="fill:#DBC6AE;" d="M140.265,153.106l32-80c0,0,98.88,42.4,144,54.128v-16.576c-45.128-11.728-144-54.128-144-54.128
		l-32,80V153.106z"/>
</g>
<path style="fill:#4C3D24;" d="M324.265,120.53c-40-8-152-56-152-56l-32,88h-8l-8-48.576c0.018-43.016,26.516-81.581,66.664-97.024
	l0,0c24.033-9.24,50.639-9.24,74.672,0l0,0c40.148,15.443,66.646,54.008,66.664,97.024v16.576H324.265z"/>
<g>
	<path style="fill:#EAEAEA;" d="M148.265,312.53h-32c-26.51,0-48,21.49-48,48v96h128l13.912-69.6l-13.912-10.4v-2.288l32-13.712
		l-56,24L148.265,312.53z"/>
	<path style="fill:#EAEAEA;" d="M340.265,312.53h-32l-24,72l-56-24l32,13.712v2.288l-13.912,10.4l13.912,69.6h128v-96
		C388.265,334.02,366.775,312.53,340.265,312.53z"/>
</g>
<g>
	<path style="fill:#BFEAEF;" d="M156.265,200.53h32c8.837,0,16-7.163,16-16v-24h-64v24
		C140.265,193.367,147.428,200.53,156.265,200.53z M180.265,168.53c4.418,0,8,3.582,8,8s-3.582,8-8,8s-8-3.582-8-8
		S175.847,168.53,180.265,168.53z"/>
	<path style="fill:#BFEAEF;" d="M252.265,160.53v24c0,8.837,7.163,16,16,16h32c8.837,0,16-7.163,16-16v-24H252.265z M276.265,184.53
		c-4.418,0-8-3.582-8-8s3.582-8,8-8s8,3.582,8,8S280.683,184.53,276.265,184.53z"/>
</g>
<polygon style="fill:#2E2C44;" points="260.265,374.242 228.265,360.53 196.265,374.242 196.265,376.53 210.177,386.962 
	196.265,456.53 260.265,456.53 246.353,386.962 260.265,376.53 "/>
<g>
	<path style="fill:#30271F;" d="M316.265,152.53h-64c-4.418,0-8,3.582-8,8h-32c0-4.418-3.582-8-8-8h-64c-4.418,0-8,3.582-8,8v24
		c0,13.255,10.745,24,24,24h32c13.255,0,24-10.745,24-24v-8h32v8c0,13.255,10.745,24,24,24h32c13.255,0,24-10.745,24-24v-24
		C324.265,156.112,320.683,152.53,316.265,152.53z M196.265,184.53c0,4.418-3.582,8-8,8h-32c-4.418,0-8-3.582-8-8v-16h48V184.53z
		 M308.265,184.53c0,4.418-3.582,8-8,8h-32c-4.418,0-8-3.582-8-8v-16h48V184.53z"/>
	<path style="fill:#30271F;" d="M180.265,190.53c-7.732,0-14-6.268-14-14s6.268-14,14-14s14,6.268,14,14
		C194.256,184.258,187.993,190.521,180.265,190.53z M180.265,174.53c-1.105,0-2,0.895-2,2c0,2.2,4,2.2,4,0
		C182.265,175.425,181.37,174.53,180.265,174.53z"/>
	<path style="fill:#30271F;" d="M276.265,190.53c-7.732,0-14-6.268-14-14s6.268-14,14-14s14,6.268,14,14
		C290.256,184.258,283.993,190.521,276.265,190.53z M276.265,174.53c-1.105,0-2,0.895-2,2c0,2.2,4,2.2,4,0
		C278.265,175.425,277.37,174.53,276.265,174.53z"/>
</g>
<path style="fill:#F0CAA8;" d="M228.265,246.53c-16.559-0.022-29.978-13.441-30-30h12c0,9.941,8.059,18,18,18s18-8.059,18-18h12
	C258.243,233.089,244.824,246.508,228.265,246.53z"/>
<polygon style="opacity:0.25;enable-background:new    ;" points="284.265,384.53 228.265,360.53 228.265,368.53 284.265,392.53 
	308.265,312.53 "/>
<polygon style="opacity:0.25;enable-background:new    ;" points="172.265,384.53 148.265,312.53 172.265,392.53 228.265,368.53 
	228.265,360.53 "/>
<g>
	<path style="fill:#EAEAEA;" d="M228.265,360.53c0,0-40-17.912-40-40v-8h-40l24,72L228.265,360.53z"/>
	<path style="fill:#EAEAEA;" d="M228.265,360.53l56,24l24-72h-40v8C268.265,342.618,228.265,360.53,228.265,360.53z"/>
</g>
<g>
</g>
<g>
</g>
<g>
</g>
<g>
</g>
<g>
</g>
<g>
</g>
<g>
</g>
<g>
</g>
<g>
</g>
<g>
</g>
<g>
</g>
<g>
</g>
<g>
</g>
<g>
</g>
<g>
</g>
</svg>
